{
  "page": 1,
  "per_page": 15,
  "photos": [
    {
      "id": 2364306,
      "width": 2304,
      "height": 3456,
      "url": "https://www.pexels.com/photo/woman-wearing-white-2-piece-bikini-at-the-beach-2364306/",
      "photographer": "Esther Santos",
      "photographer_url": "https://www.pexels.com/@esther-santos-1159045",
      "photographer_id": 1159045,
      "avg_color": "#B8B4B3",
      "src": {
        "original": "https://images.pexels.com/photos/2364306/pexels-photo-2364306.jpeg",
        "large2x": "https://images.pexels.com/photos/2364306/pexels-photo-2364306.jpeg?auto=compress&cs=tinysrgb&dpr=2&h=650&w=940",
        "large": "https://images.pexels.com/photos/2364306/pexels-photo-2364306.jpeg?auto=compress&cs=tinysrgb&h=650&w=940",
        "medium": "https://images.pexels.com/photos/2364306/pexels-photo-2364306.jpeg?auto=compress&cs=tinysrgb&h=350",
        "small": "https://images.pexels.com/photos/2364306/pexels-photo-2364306.jpeg?auto=compress&cs=tinysrgb&h=130",
        "portrait": "https://images.pexels.com/photos/2364306/pexels-photo-2364306.jpeg?auto=compress&cs=tinysrgb&fit=crop&h=1200&w=800",
        "landscape": "https://images.pexels.com/photos/2364306/pexels-photo-2364306.jpeg?auto=compress&cs=tinysrgb&fit=crop&h=627&w=1200",
        "tiny": "https://images.pexels.com/photos/2364306/pexels-photo-2364306.jpeg?auto=compress&cs=tinysrgb&dpr=1&fit=crop&h=200&w=280"
      },
      "liked": false,
      "alt": "Woman Wearing White 2-piece Bikini At The Beach"
    },
    {
      "id": 1550913,
      "width": 3024,
      "height": 4032,
      "url": "https://www.pexels.com/photo/woman-on-white-deck-1550913/",
      "photographer": "Oriana Polito",
      "photographer_url": "https://www.pexels.com/@oripolito",
      "photographer_id": 714230,
      "avg_color": "#67B2AC",
      "src": {
        "original": "https://images.pexels.com/photos/1550913/pexels-photo-1550913.jpeg",
        "large2x": "https://images.pexels.com/photos/1550913/pexels-photo-1550913.jpeg?auto=compress&cs=tinysrgb&dpr=2&h=650&w=940",
        "large": "https://images.pexels.com/photos/1550913/pexels-photo-1550913.jpeg?auto=compress&cs=tinysrgb&h=650&w=940",
        "medium": "https://images.pexels.com/photos/1550913/pexels-photo-1550913.jpeg?auto=compress&cs=tinysrgb&h=350",
        "small": "https://images.pexels.com/photos/1550913/pexels-photo-1550913.jpeg?auto=compress&cs=tinysrgb&h=130",
        "portrait": "https://images.pexels.com/photos/1550913/pexels-photo-1550913.jpeg?auto=compress&cs=tinysrgb&fit=crop&h=1200&w=800",
        "landscape": "https://images.pexels.com/photos/1550913/pexels-photo-1550913.jpeg?auto=compress&cs=tinysrgb&fit=crop&h=627&w=1200",
        "tiny": "https://images.pexels.com/photos/1550913/pexels-photo-1550913.jpeg?auto=compress&cs=tinysrgb&dpr=1&fit=crop&h=200&w=280"
      },
      "liked": false,
      "alt": "Woman on White Deck"
    },
    {
      "id": 331715,
      "width": 2000,
      "height": 3000,
      "url": "https://www.pexels.com/photo/woman-standing-on-shore-331715/",
      "photographer": "Summer Stock",
      "photographer_url": "https://www.pexels.com/@summerstock",
      "photographer_id": 86868,
      "avg_color": "#C3A595",
      "src": {
        "original": "https://images.pexels.com/photos/331715/pexels-photo-331715.jpeg",
        "large2x": "https://images.pexels.com/photos/331715/pexels-photo-331715.jpeg?auto=compress&cs=tinysrgb&dpr=2&h=650&w=940",
        "large": "https://images.pexels.com/photos/331715/pexels-photo-331715.jpeg?auto=compress&cs=tinysrgb&h=650&w=940",
        "medium": "https://images.pexels.com/photos/331715/pexels-photo-331715.jpeg?auto=compress&cs=tinysrgb&h=350",
        "small": "https://images.pexels.com/photos/331715/pexels-photo-331715.jpeg?auto=compress&cs=tinysrgb&h=130",
        "portrait": "https://images.pexels.com/photos/331715/pexels-photo-331715.jpeg?auto=compress&cs=tinysrgb&fit=crop&h=1200&w=800",
        "landscape": "https://images.pexels.com/photos/331715/pexels-photo-331715.jpeg?auto=compress&cs=tinysrgb&fit=crop&h=627&w=1200",
        "tiny": "https://images.pexels.com/photos/331715/pexels-photo-331715.jpeg?auto=compress&cs=tinysrgb&dpr=1&fit=crop&h=200&w=280"
      },
      "liked": false,
      "alt": "Woman Standing on Shore"
    },
    {
      "id": 3087891,
      "width": 2160,
      "height": 3239,
      "url": "https://www.pexels.com/photo/woman-kneeling-on-the-seashore-3087891/",
      "photographer": "Şule Makaroğlu",
      "photographer_url": "https://www.pexels.com/@sule-makaroglu-1037599",
      "photographer_id": 1037599,
      "avg_color": "#AEA2A2",
      "src": {
        "original": "https://images.pexels.com/photos/3087891/pexels-photo-3087891.jpeg",
        "large2x": "https://images.pexels.com/photos/3087891/pexels-photo-3087891.jpeg?auto=compress&cs=tinysrgb&dpr=2&h=650&w=940",
        "large": "https://images.pexels.com/photos/3087891/pexels-photo-3087891.jpeg?auto=compress&cs=tinysrgb&h=650&w=940",
        "medium": "https://images.pexels.com/photos/3087891/pexels-photo-3087891.jpeg?auto=compress&cs=tinysrgb&h=350",
        "small": "https://images.pexels.com/photos/3087891/pexels-photo-3087891.jpeg?auto=compress&cs=tinysrgb&h=130",
        "portrait": "https://images.pexels.com/photos/3087891/pexels-photo-3087891.jpeg?auto=compress&cs=tinysrgb&fit=crop&h=1200&w=800",
        "landscape": "https://images.pexels.com/photos/3087891/pexels-photo-3087891.jpeg?auto=compress&cs=tinysrgb&fit=crop&h=627&w=1200",
        "tiny": "https://images.pexels.com/photos/3087891/pexels-photo-3087891.jpeg?auto=compress&cs=tinysrgb&dpr=1&fit=crop&h=200&w=280"
      },
      "liked": false,
      "alt": "Woman kneeling on the seashore "
    },
    {
      "id": 3155674,
      "width": 3840,
      "height": 2553,
      "url": "https://www.pexels.com/photo/photo-of-woman-in-bikini-at-the-beach-posing-with-her-hands-up-3155674/",
      "photographer": "Asad Photo Maldives",
      "photographer_url": "https://www.pexels.com/@asadphoto",
      "photographer_id": 45786,
      "avg_color": "#8AAED4",
      "src": {
        "original": "https://images.pexels.com/photos/3155674/pexels-photo-3155674.jpeg",
        "large2x": "https://images.pexels.com/photos/3155674/pexels-photo-3155674.jpeg?auto=compress&cs=tinysrgb&dpr=2&h=650&w=940",
        "large": "https://images.pexels.com/photos/3155674/pexels-photo-3155674.jpeg?auto=compress&cs=tinysrgb&h=650&w=940",
        "medium": "https://images.pexels.com/photos/3155674/pexels-photo-3155674.jpeg?auto=compress&cs=tinysrgb&h=350",
        "small": "https://images.pexels.com/photos/3155674/pexels-photo-3155674.jpeg?auto=compress&cs=tinysrgb&h=130",
        "portrait": "https://images.pexels.com/photos/3155674/pexels-photo-3155674.jpeg?auto=compress&cs=tinysrgb&fit=crop&h=1200&w=800",
        "landscape": "https://images.pexels.com/photos/3155674/pexels-photo-3155674.jpeg?auto=compress&cs=tinysrgb&fit=crop&h=627&w=1200",
        "tiny": "https://images.pexels.com/photos/3155674/pexels-photo-3155674.jpeg?auto=compress&cs=tinysrgb&dpr=1&fit=crop&h=200&w=280"
      },
      "liked": false,
      "alt": "Photo of Woman in Bikini at the Beach Posing with Her Hands Up"
    },
    {
      "id": 319973,
      "width": 4256,
      "height": 2832,
      "url": "https://www.pexels.com/photo/woman-lying-on-mangroves-319973/",
      "photographer": "Oleksandr P",
      "photographer_url": "https://www.pexels.com/@freestockpro",
      "photographer_id": 100512,
      "avg_color": "#4A493F",
      "src": {
        "original": "https://images.pexels.com/photos/319973/pexels-photo-319973.jpeg",
        "large2x": "https://images.pexels.com/photos/319973/pexels-photo-319973.jpeg?auto=compress&cs=tinysrgb&dpr=2&h=650&w=940",
        "large": "https://images.pexels.com/photos/319973/pexels-photo-319973.jpeg?auto=compress&cs=tinysrgb&h=650&w=940",
        "medium": "https://images.pexels.com/photos/319973/pexels-photo-319973.jpeg?auto=compress&cs=tinysrgb&h=350",
        "small": "https://images.pexels.com/photos/319973/pexels-photo-319973.jpeg?auto=compress&cs=tinysrgb&h=130",
        "portrait": "https://images.pexels.com/photos/319973/pexels-photo-319973.jpeg?auto=compress&cs=tinysrgb&fit=crop&h=1200&w=800",
        "landscape": "https://images.pexels.com/photos/319973/pexels-photo-319973.jpeg?auto=compress&cs=tinysrgb&fit=crop&h=627&w=1200",
        "tiny": "https://images.pexels.com/photos/319973/pexels-photo-319973.jpeg?auto=compress&cs=tinysrgb&dpr=1&fit=crop&h=200&w=280"
      },
      "liked": false,
      "alt": "Woman Lying on Mangroves"
    },
    {
      "id": 2061083,
      "width": 3456,
      "height": 5184,
      "url": "https://www.pexels.com/photo/woman-wearing-red-swimwear-2061083/",
      "photographer": "Dellon Thomas",
      "photographer_url": "https://www.pexels.com/@elsimage",
      "photographer_id": 181353,
      "avg_color": "#8C7772",
      "src": {
        "original": "https://images.pexels.com/photos/2061083/pexels-photo-2061083.jpeg",
        "large2x": "https://images.pexels.com/photos/2061083/pexels-photo-2061083.jpeg?auto=compress&cs=tinysrgb&dpr=2&h=650&w=940",
        "large": "https://images.pexels.com/photos/2061083/pexels-photo-2061083.jpeg?auto=compress&cs=tinysrgb&h=650&w=940",
        "medium": "https://images.pexels.com/photos/2061083/pexels-photo-2061083.jpeg?auto=compress&cs=tinysrgb&h=350",
        "small": "https://images.pexels.com/photos/2061083/pexels-photo-2061083.jpeg?auto=compress&cs=tinysrgb&h=130",
        "portrait": "https://images.pexels.com/photos/2061083/pexels-photo-2061083.jpeg?auto=compress&cs=tinysrgb&fit=crop&h=1200&w=800",
        "landscape": "https://images.pexels.com/photos/2061083/pexels-photo-2061083.jpeg?auto=compress&cs=tinysrgb&fit=crop&h=627&w=1200",
        "tiny": "https://images.pexels.com/photos/2061083/pexels-photo-2061083.jpeg?auto=compress&cs=tinysrgb&dpr=1&fit=crop&h=200&w=280"
      },
      "liked": false,
      "alt": "Woman Wearing Red Swimwear"
    },
    {
      "id": 3769133,
      "width": 4184,
      "height": 6100,
      "url": "https://www.pexels.com/photo/side-view-photo-of-woman-in-white-bikini-getting-out-of-a-swimming-pool-3769133/",
      "photographer": "Andrea Piacquadio",
      "photographer_url": "https://www.pexels.com/@olly",
      "photographer_id": 224453,
      "avg_color": "#BFBFBC",
      "src": {
        "original": "https://images.pexels.com/photos/3769133/pexels-photo-3769133.jpeg",
        "large2x": "https://images.pexels.com/photos/3769133/pexels-photo-3769133.jpeg?auto=compress&cs=tinysrgb&dpr=2&h=650&w=940",
        "large": "https://images.pexels.com/photos/3769133/pexels-photo-3769133.jpeg?auto=compress&cs=tinysrgb&h=650&w=940",
        "medium": "https://images.pexels.com/photos/3769133/pexels-photo-3769133.jpeg?auto=compress&cs=tinysrgb&h=350",
        "small": "https://images.pexels.com/photos/3769133/pexels-photo-3769133.jpeg?auto=compress&cs=tinysrgb&h=130",
        "portrait": "https://images.pexels.com/photos/3769133/pexels-photo-3769133.jpeg?auto=compress&cs=tinysrgb&fit=crop&h=1200&w=800",
        "landscape": "https://images.pexels.com/photos/3769133/pexels-photo-3769133.jpeg?auto=compress&cs=tinysrgb&fit=crop&h=627&w=1200",
        "tiny": "https://images.pexels.com/photos/3769133/pexels-photo-3769133.jpeg?auto=compress&cs=tinysrgb&dpr=1&fit=crop&h=200&w=280"
      },
      "liked": false,
      "alt": "Side View Photo of Woman in White Bikini Getting Out of a Swimming Pool"
    },
    {
      "id": 3763771,
      "width": 7680,
      "height": 5120,
      "url": "https://www.pexels.com/photo/photo-of-smiling-woman-in-red-bikini-lying-on-white-pool-chair-3763771/",
      "photographer": "Andrea Piacquadio",
      "photographer_url": "https://www.pexels.com/@olly",
      "photographer_id": 224453,
      "avg_color": "#9E9EA1",
      "src": {
        "original": "https://images.pexels.com/photos/3763771/pexels-photo-3763771.jpeg",
        "large2x": "https://images.pexels.com/photos/3763771/pexels-photo-3763771.jpeg?auto=compress&cs=tinysrgb&dpr=2&h=650&w=940",
        "large": "https://images.pexels.com/photos/3763771/pexels-photo-3763771.jpeg?auto=compress&cs=tinysrgb&h=650&w=940",
        "medium": "https://images.pexels.com/photos/3763771/pexels-photo-3763771.jpeg?auto=compress&cs=tinysrgb&h=350",
        "small": "https://images.pexels.com/photos/3763771/pexels-photo-3763771.jpeg?auto=compress&cs=tinysrgb&h=130",
        "portrait": "https://images.pexels.com/photos/3763771/pexels-photo-3763771.jpeg?auto=compress&cs=tinysrgb&fit=crop&h=1200&w=800",
        "landscape": "https://images.pexels.com/photos/3763771/pexels-photo-3763771.jpeg?auto=compress&cs=tinysrgb&fit=crop&h=627&w=1200",
        "tiny": "https://images.pexels.com/photos/3763771/pexels-photo-3763771.jpeg?auto=compress&cs=tinysrgb&dpr=1&fit=crop&h=200&w=280"
      },
      "liked": false,
      "alt": "Photo of Smiling Woman in Red Bikini Lying on White Pool Chair"
    },
    {
      "id": 1362484,
      "width": 3456,
      "height": 5184,
      "url": "https://www.pexels.com/photo/woman-raising-left-leg-while-raising-hands-in-air-1362484/",
      "photographer": "Loe Moshkovska",
      "photographer_url": "https://www.pexels.com/@iamloe",
      "photographer_id": 218149,
      "avg_color": "#9AA0A3",
      "src": {
        "original": "https://images.pexels.com/photos/1362484/pexels-photo-1362484.jpeg",
        "large2x": "https://images.pexels.com/photos/1362484/pexels-photo-1362484.jpeg?auto=compress&cs=tinysrgb&dpr=2&h=650&w=940",
        "large": "https://images.pexels.com/photos/1362484/pexels-photo-1362484.jpeg?auto=compress&cs=tinysrgb&h=650&w=940",
        "medium": "https://images.pexels.com/photos/1362484/pexels-photo-1362484.jpeg?auto=compress&cs=tinysrgb&h=350",
        "small": "https://images.pexels.com/photos/1362484/pexels-photo-1362484.jpeg?auto=compress&cs=tinysrgb&h=130",
        "portrait": "https://images.pexels.com/photos/1362484/pexels-photo-1362484.jpeg?auto=compress&cs=tinysrgb&fit=crop&h=1200&w=800",
        "landscape": "https://images.pexels.com/photos/1362484/pexels-photo-1362484.jpeg?auto=compress&cs=tinysrgb&fit=crop&h=627&w=1200",
        "tiny": "https://images.pexels.com/photos/1362484/pexels-photo-1362484.jpeg?auto=compress&cs=tinysrgb&dpr=1&fit=crop&h=200&w=280"
      },
      "liked": false,
      "alt": "Woman Raising Left Leg While Raising Hands in Air"
    },
    {
      "id": 3722176,
      "width": 4480,
      "height": 6720,
      "url": "https://www.pexels.com/photo/woman-in-black-bikini-top-smiling-3722176/",
      "photographer": "Leah Newhouse",
      "photographer_url": "https://www.pexels.com/@leah-newhouse-50725",
      "photographer_id": 50725,
      "avg_color": "#7E6D5A",
      "src": {
        "original": "https://images.pexels.com/photos/3722176/pexels-photo-3722176.jpeg",
        "large2x": "https://images.pexels.com/photos/3722176/pexels-photo-3722176.jpeg?auto=compress&cs=tinysrgb&dpr=2&h=650&w=940",
        "large": "https://images.pexels.com/photos/3722176/pexels-photo-3722176.jpeg?auto=compress&cs=tinysrgb&h=650&w=940",
        "medium": "https://images.pexels.com/photos/3722176/pexels-photo-3722176.jpeg?auto=compress&cs=tinysrgb&h=350",
        "small": "https://images.pexels.com/photos/3722176/pexels-photo-3722176.jpeg?auto=compress&cs=tinysrgb&h=130",
        "portrait": "https://images.pexels.com/photos/3722176/pexels-photo-3722176.jpeg?auto=compress&cs=tinysrgb&fit=crop&h=1200&w=800",
        "landscape": "https://images.pexels.com/photos/3722176/pexels-photo-3722176.jpeg?auto=compress&cs=tinysrgb&fit=crop&h=627&w=1200",
        "tiny": "https://images.pexels.com/photos/3722176/pexels-photo-3722176.jpeg?auto=compress&cs=tinysrgb&dpr=1&fit=crop&h=200&w=280"
      },
      "liked": false,
      "alt": "Woman in Black Bikini Top Smiling"
    },
    {
      "id": 3764492,
      "width": 7680,
      "height": 5120,
      "url": "https://www.pexels.com/photo/photo-of-woman-in-white-bikini-lying-by-poolside-with-her-eyes-closed-3764492/",
      "photographer": "Andrea Piacquadio",
      "photographer_url": "https://www.pexels.com/@olly",
      "photographer_id": 224453,
      "avg_color": "#C9C7C6",
      "src": {
        "original": "https://images.pexels.com/photos/3764492/pexels-photo-3764492.jpeg",
        "large2x": "https://images.pexels.com/photos/3764492/pexels-photo-3764492.jpeg?auto=compress&cs=tinysrgb&dpr=2&h=650&w=940",
        "large": "https://images.pexels.com/photos/3764492/pexels-photo-3764492.jpeg?auto=compress&cs=tinysrgb&h=650&w=940",
        "medium": "https://images.pexels.com/photos/3764492/pexels-photo-3764492.jpeg?auto=compress&cs=tinysrgb&h=350",
        "small": "https://images.pexels.com/photos/3764492/pexels-photo-3764492.jpeg?auto=compress&cs=tinysrgb&h=130",
        "portrait": "https://images.pexels.com/photos/3764492/pexels-photo-3764492.jpeg?auto=compress&cs=tinysrgb&fit=crop&h=1200&w=800",
        "landscape": "https://images.pexels.com/photos/3764492/pexels-photo-3764492.jpeg?auto=compress&cs=tinysrgb&fit=crop&h=627&w=1200",
        "tiny": "https://images.pexels.com/photos/3764492/pexels-photo-3764492.jpeg?auto=compress&cs=tinysrgb&dpr=1&fit=crop&h=200&w=280"
      },
      "liked": false,
      "alt": "Photo of Woman in White Bikini Lying by Poolside with Her Eyes Closed"
    },
    {
      "id": 2792080,
      "width": 3348,
      "height": 5022,
      "url": "https://www.pexels.com/photo/photo-of-happy-woman-in-two-piece-bikini-jumping-on-shore-2792080/",
      "photographer": "Dellon Thomas",
      "photographer_url": "https://www.pexels.com/@elsimage",
      "photographer_id": 181353,
      "avg_color": "#A3A1A0",
      "src": {
        "original": "https://images.pexels.com/photos/2792080/pexels-photo-2792080.jpeg",
        "large2x": "https://images.pexels.com/photos/2792080/pexels-photo-2792080.jpeg?auto=compress&cs=tinysrgb&dpr=2&h=650&w=940",
        "large": "https://images.pexels.com/photos/2792080/pexels-photo-2792080.jpeg?auto=compress&cs=tinysrgb&h=650&w=940",
        "medium": "https://images.pexels.com/photos/2792080/pexels-photo-2792080.jpeg?auto=compress&cs=tinysrgb&h=350",
        "small": "https://images.pexels.com/photos/2792080/pexels-photo-2792080.jpeg?auto=compress&cs=tinysrgb&h=130",
        "portrait": "https://images.pexels.com/photos/2792080/pexels-photo-2792080.jpeg?auto=compress&cs=tinysrgb&fit=crop&h=1200&w=800",
        "landscape": "https://images.pexels.com/photos/2792080/pexels-photo-2792080.jpeg?auto=compress&cs=tinysrgb&fit=crop&h=627&w=1200",
        "tiny": "https://images.pexels.com/photos/2792080/pexels-photo-2792080.jpeg?auto=compress&cs=tinysrgb&dpr=1&fit=crop&h=200&w=280"
      },
      "liked": false,
      "alt": "Photo of Happy Woman in Two Piece Bikini Jumping on Shore"
    },
    {
      "id": 1142987,
      "width": 4993,
      "height": 7501,
      "url": "https://www.pexels.com/photo/back-view-of-a-woman-in-white-bikini-standing-on-the-beach-during-golden-hour-1142987/",
      "photographer": "Jacub Gomez",
      "photographer_url": "https://www.pexels.com/@jacub-gomez-447561",
      "photographer_id": 447561,
      "avg_color": "#A48F89",
      "src": {
        "original": "https://images.pexels.com/photos/1142987/pexels-photo-1142987.jpeg",
        "large2x": "https://images.pexels.com/photos/1142987/pexels-photo-1142987.jpeg?auto=compress&cs=tinysrgb&dpr=2&h=650&w=940",
        "large": "https://images.pexels.com/photos/1142987/pexels-photo-1142987.jpeg?auto=compress&cs=tinysrgb&h=650&w=940",
        "medium": "https://images.pexels.com/photos/1142987/pexels-photo-1142987.jpeg?auto=compress&cs=tinysrgb&h=350",
        "small": "https://images.pexels.com/photos/1142987/pexels-photo-1142987.jpeg?auto=compress&cs=tinysrgb&h=130",
        "portrait": "https://images.pexels.com/photos/1142987/pexels-photo-1142987.jpeg?auto=compress&cs=tinysrgb&fit=crop&h=1200&w=800",
        "landscape": "https://images.pexels.com/photos/1142987/pexels-photo-1142987.jpeg?auto=compress&cs=tinysrgb&fit=crop&h=627&w=1200",
        "tiny": "https://images.pexels.com/photos/1142987/pexels-photo-1142987.jpeg?auto=compress&cs=tinysrgb&dpr=1&fit=crop&h=200&w=280"
      },
      "liked": false,
      "alt": "Back View of a Woman in White Bikini Standing on the Beach during Golden Hour"
    },
    {
      "id": 3622619,
      "width": 3310,
      "height": 4597,
      "url": "https://www.pexels.com/photo/two-women-wearing-swimsuits-3622619/",
      "photographer": "Wesley Davi",
      "photographer_url": "https://www.pexels.com/@wesleydavi",
      "photographer_id": 1169070,
      "avg_color": "#6C6C61",
      "src": {
        "original": "https://images.pexels.com/photos/3622619/pexels-photo-3622619.jpeg",
        "large2x": "https://images.pexels.com/photos/3622619/pexels-photo-3622619.jpeg?auto=compress&cs=tinysrgb&dpr=2&h=650&w=940",
        "large": "https://images.pexels.com/photos/3622619/pexels-photo-3622619.jpeg?auto=compress&cs=tinysrgb&h=650&w=940",
        "medium": "https://images.pexels.com/photos/3622619/pexels-photo-3622619.jpeg?auto=compress&cs=tinysrgb&h=350",
        "small": "https://images.pexels.com/photos/3622619/pexels-photo-3622619.jpeg?auto=compress&cs=tinysrgb&h=130",
        "portrait": "https://images.pexels.com/photos/3622619/pexels-photo-3622619.jpeg?auto=compress&cs=tinysrgb&fit=crop&h=1200&w=800",
        "landscape": "https://images.pexels.com/photos/3622619/pexels-photo-3622619.jpeg?auto=compress&cs=tinysrgb&fit=crop&h=627&w=1200",
        "tiny": "https://images.pexels.com/photos/3622619/pexels-photo-3622619.jpeg?auto=compress&cs=tinysrgb&dpr=1&fit=crop&h=200&w=280"
      },
      "liked": false,
      "alt": "Two Women Wearing Swimsuits"
    }
  ],
  "total_results": 8000,
  "next_page": "https://api.pexels.com/v1/search/?page=2&per_page=15&query=bikini"
}
